{
  "id": "DualDaggers",
  "name": "Dagues jumelles",
  "castCD": 0,
  "props": {},
  "group": 4,
  "droppable": false,
  "tags": [],
  "ambiantDesc": "Deux dagues pour le prix d'une, toujours plus de violence.",
  "gameplayDesc": "Le 3ème coup est un {coup critique@CC}.",
  "icon": {
    "file": "cardIcons.png",
    "size": 24,
    "x": 5,
    "y": 1
  },
  "cellCost": 0,
  "moneyCost": 1800,
  "tier1": "Brutality",
  "hasLevels": true,
  "legendAffix": "FullLifeDamage",
  "legendaryName": "Alter ego",
  "__separator_group_ID": 4,
  "__separator_group_Name": "Melee",
  "__original_Index": 48
}